{
    "error": false,
    "message": "Successfully",
    "status_code": 200,
    "data": [
        {
            "id": 11,
            "name": "Aceh",
            "administrative_code": "11",
            "created_at": "2024-07-22T17:47:31.000000Z",
            "updated_at": "2024-07-22T17:47:31.000000Z"
        },
        {
            "id": 12,
            "name": "Sumatera Utara",
            "administrative_code": "12",
            "created_at": "2024-07-22T17:47:31.000000Z",
            "updated_at": "2024-07-22T17:47:31.000000Z"
        },
        {
            "id": 13,
            "name": "Sumatera Barat",
            "administrative_code": "13",
            "created_at": "2024-07-22T17:47:31.000000Z",
            "updated_at": "2024-07-22T17:47:31.000000Z"
        },
        {
            "id": 14,
            "name": "Riau",
            "administrative_code": "14",
            "created_at": "2024-07-22T17:47:31.000000Z",
            "updated_at": "2024-07-22T17:47:31.000000Z"
        },
        {
            "id": 15,
            "name": "Jambi",
            "administrative_code": "15",
            "created_at": "2024-07-22T17:47:31.000000Z",
            "updated_at": "2024-07-22T17:47:31.000000Z"
        },
        {
            "id": 16,
            "name": "Sumatera Selatan",
            "administrative_code": "16",
            "created_at": "2024-07-22T17:47:31.000000Z",
            "updated_at": "2024-07-22T17:47:31.000000Z"
        },
        {
            "id": 17,
            "name": "Bengkulu",
            "administrative_code": "17",
            "created_at": "2024-07-22T17:47:31.000000Z",
            "updated_at": "2024-07-22T17:47:31.000000Z"
        },
        {
            "id": 18,
            "name": "Lampung",
            "administrative_code": "18",
            "created_at": "2024-07-22T17:47:31.000000Z",
            "updated_at": "2024-07-22T17:47:31.000000Z"
        },
        {
            "id": 19,
            "name": "Kepulauan Bangka Belitung",
            "administrative_code": "19",
            "created_at": "2024-07-22T17:47:31.000000Z",
            "updated_at": "2024-07-22T17:47:31.000000Z"
        },
        {
            "id": 21,
            "name": "Kepulauan Riau",
            "administrative_code": "21",
            "created_at": "2024-07-22T17:47:31.000000Z",
            "updated_at": "2024-07-22T17:47:31.000000Z"
        },
        {
            "id": 31,
            "name": "DKI Jakarta",
            "administrative_code": "31",
            "created_at": "2024-07-22T17:47:31.000000Z",
            "updated_at": "2024-07-22T17:47:31.000000Z"
        },
        {
            "id": 32,
            "name": "Jawa Barat",
            "administrative_code": "32",
            "created_at": "2024-07-22T17:47:31.000000Z",
            "updated_at": "2024-07-22T17:47:31.000000Z"
        },
        {
            "id": 33,
            "name": "Jawa Tengah",
            "administrative_code": "33",
            "created_at": "2024-07-22T17:47:31.000000Z",
            "updated_at": "2024-07-22T17:47:31.000000Z"
        },
        {
            "id": 34,
            "name": "DI Yogyakarta",
            "administrative_code": "34",
            "created_at": "2024-07-22T17:47:31.000000Z",
            "updated_at": "2024-07-22T17:47:31.000000Z"
        },
        {
            "id": 35,
            "name": "Jawa Timur",
            "administrative_code": "35",
            "created_at": "2024-07-22T17:47:31.000000Z",
            "updated_at": "2024-07-22T17:47:31.000000Z"
        },
        {
            "id": 36,
            "name": "Banten",
            "administrative_code": "36",
            "created_at": "2024-07-22T17:47:31.000000Z",
            "updated_at": "2024-07-22T17:47:31.000000Z"
        },
        {
            "id": 51,
            "name": "Bali",
            "administrative_code": "51",
            "created_at": "2024-07-22T17:47:31.000000Z",
            "updated_at": "2024-07-22T17:47:31.000000Z"
        },
        {
            "id": 52,
            "name": "Nusa Tenggara Barat",
            "administrative_code": "52",
            "created_at": "2024-07-22T17:47:31.000000Z",
            "updated_at": "2024-07-22T17:47:31.000000Z"
        },
        {
            "id": 53,
            "name": "Nusa Tenggara Timur",
            "administrative_code": "53",
            "created_at": "2024-07-22T17:47:31.000000Z",
            "updated_at": "2024-07-22T17:47:31.000000Z"
        },
        {
            "id": 61,
            "name": "Kalimantan Barat",
            "administrative_code": "61",
            "created_at": "2024-07-22T17:47:31.000000Z",
            "updated_at": "2024-07-22T17:47:31.000000Z"
        },
        {
            "id": 62,
            "name": "Kalimantan Tengah",
            "administrative_code": "62",
            "created_at": "2024-07-22T17:47:31.000000Z",
            "updated_at": "2024-07-22T17:47:31.000000Z"
        },
        {
            "id": 63,
            "name": "Kalimantan Selatan",
            "administrative_code": "63",
            "created_at": "2024-07-22T17:47:31.000000Z",
            "updated_at": "2024-07-22T17:47:31.000000Z"
        },
        {
            "id": 64,
            "name": "Kalimantan Timur",
            "administrative_code": "64",
            "created_at": "2024-07-22T17:47:31.000000Z",
            "updated_at": "2024-07-22T17:47:31.000000Z"
        },
        {
            "id": 65,
            "name": "Kalimantan Utara",
            "administrative_code": "65",
            "created_at": "2024-07-22T17:47:31.000000Z",
            "updated_at": "2024-07-22T17:47:31.000000Z"
        },
        {
            "id": 71,
            "name": "Sulawesi Utara",
            "administrative_code": "71",
            "created_at": "2024-07-22T17:47:31.000000Z",
            "updated_at": "2024-07-22T17:47:31.000000Z"
        },
        {
            "id": 72,
            "name": "Sulawesi Tengah",
            "administrative_code": "72",
            "created_at": "2024-07-22T17:47:31.000000Z",
            "updated_at": "2024-07-22T17:47:31.000000Z"
        },
        {
            "id": 73,
            "name": "Sulawesi Selatan",
            "administrative_code": "73",
            "created_at": "2024-07-22T17:47:31.000000Z",
            "updated_at": "2024-07-22T17:47:31.000000Z"
        },
        {
            "id": 74,
            "name": "Sulawesi Tenggara",
            "administrative_code": "74",
            "created_at": "2024-07-22T17:47:31.000000Z",
            "updated_at": "2024-07-22T17:47:31.000000Z"
        },
        {
            "id": 75,
            "name": "Gorontalo",
            "administrative_code": "75",
            "created_at": "2024-07-22T17:47:31.000000Z",
            "updated_at": "2024-07-22T17:47:31.000000Z"
        },
        {
            "id": 76,
            "name": "Sulawesi Barat",
            "administrative_code": "76",
            "created_at": "2024-07-22T17:47:31.000000Z",
            "updated_at": "2024-07-22T17:47:31.000000Z"
        }
    ],
    "pagination": {
        "total": 36,
        "count": 30,
        "per_page": 30,
        "current_page": 1,
        "total_pages": 2
    }
}