{
    "status_code": 200,
    "error": false,
    "message": "Successfully",
    "data": [
        {
            "id": 4400,
            "name": "DEVELOPER",
            "email": "developer@kemenhub.go.id",
            "username": "developer",
            "is_active": 1,
            "nip": "0000000000000001",
            "role_id": 3,
            "role_name": "Assessor",
            "work_unit_id": 1,
            "work_unit_name": "Kementerian Perhubungan Darat",
            "province_id": 31,
            "city_id": 3173,
            "created_at": "2024-12-07 00:11:55"
        },
        {
            "id": 4399,
            "name": "test admin 12",
            "email": "testadmin1@mail.com2",
            "username": "testusername12",
            "is_active": 0,
            "nip": "123123123112",
            "role_id": 3,
            "role_name": "Assessor",
            "work_unit_id": 4,
            "work_unit_name": "Dishub Provinsi Jawa Timur",
            "province_id": 35,
            "city_id": 3578,
            "created_at": "2024-10-22 04:40:12"
        },
        {
            "id": 3,
            "name": "Penilai",
            "email": "penilai@smk.com",
            "username": "penilai",
            "is_active": 1,
            "nip": null,
            "role_id": 3,
            "role_name": "Assessor",
            "work_unit_id": 1,
            "work_unit_name": "Kementerian Perhubungan Darat",
            "province_id": 31,
            "city_id": 3173,
            "created_at": "2024-07-23 00:47:32"
        },
        {
            "id": 4,
            "name": "Penilai_2",
            "email": "penilai_2@smk.com",
            "username": "penilai_2",
            "is_active": 1,
            "nip": null,
            "role_id": 3,
            "role_name": "Assessor",
            "work_unit_id": 1,
            "work_unit_name": "Kementerian Perhubungan Darat",
            "province_id": 31,
            "city_id": 3173,
            "created_at": "2024-07-23 00:47:32"
        },
        {
            "id": 5,
            "name": "Ketua Tim",
            "email": "joko_kustanto@smk.com1",
            "username": "joko_kustanto1",
            "is_active": 1,
            "nip": null,
            "role_id": 3,
            "role_name": "Assessor",
            "work_unit_id": 1,
            "work_unit_name": "Kementerian Perhubungan Darat",
            "province_id": 31,
            "city_id": 3173,
            "created_at": "2024-07-23 00:47:32"
        },
        {
            "id": 6,
            "name": "Direktur Jenderal",
            "email": "direktur@smk.com",
            "username": "direktur",
            "is_active": 1,
            "nip": null,
            "role_id": 3,
            "role_name": "Assessor",
            "work_unit_id": 1,
            "work_unit_name": "Kementerian Perhubungan Darat",
            "province_id": 31,
            "city_id": 3173,
            "created_at": "2024-07-23 00:47:32"
        },
        {
            "id": 1,
            "name": "Administrator",
            "email": "admin@smk.com",
            "username": "administrator",
            "is_active": 1,
            "nip": null,
            "role_id": 1,
            "role_name": "Super Admin",
            "work_unit_id": 1,
            "work_unit_name": "Kementerian Perhubungan Darat",
            "province_id": 31,
            "city_id": 3173,
            "created_at": "2024-07-23 00:47:31"
        },
        {
            "id": 2,
            "name": "Amirulloh",
            "email": "setdit@smk.com",
            "username": "sesdit",
            "is_active": 1,
            "nip": null,
            "role_id": 7,
            "role_name": "Sesditjen Hubdat",
            "work_unit_id": 1,
            "work_unit_name": "Kementerian Perhubungan Darat",
            "province_id": 31,
            "city_id": 3173,
            "created_at": "2024-07-23 00:47:31"
        },
        {
            "id": 4397,
            "name": "Iqbal Firmansyah",
            "email": "iqbalfirmansyah592@gmail.com",
            "username": "iqbalfirmansyah",
            "is_active": 1,
            "nip": null,
            "role_id": 3,
            "role_name": "Assessor",
            "work_unit_id": 1,
            "work_unit_name": "Kementerian Perhubungan Darat",
            "province_id": 31,
            "city_id": 3173,
            "created_at": "2024-05-03 06:11:35"
        },
        {
            "id": 4396,
            "name": "Aji",
            "email": "ajiibuana@gmail.com",
            "username": "aji",
            "is_active": 1,
            "nip": null,
            "role_id": 3,
            "role_name": "Assessor",
            "work_unit_id": 1,
            "work_unit_name": "Kementerian Perhubungan Darat",
            "province_id": 31,
            "city_id": 3173,
            "created_at": "2024-05-03 06:06:45"
        }
    ],
    "pagination": {
        "total": 17,
        "count": 10,
        "per_page": 10,
        "current_page": 1,
        "total_pages": 2
    }
}